<?xml version="1.0" encoding="utf-8"?>
<!-- Generator: Adobe Illustrator 24.3.0, SVG Export Plug-In . SVG Version: 6.00 Build 0)  -->
<svg version="1.1" id="Layer_1" xmlns="http://www.w3.org/2000/svg" xmlns:xlink="http://www.w3.org/1999/xlink" x="0px" y="0px"
	 viewBox="0 0 350 217" style="enable-background:new 0 0 350 217;" xml:space="preserve">
<style type="text/css">
	.st0{fill:none;stroke:#343A40;stroke-width:2;stroke-linecap:round;stroke-miterlimit:10;}
	.st1{fill:#343A40;}
	.st2{enable-background:new    ;}
	.st3{fill:none;}
</style>
<path class="st0" d="M75,142.6c51.2,82.4,175.1,81.6,236-63.3"/>
<path class="st1" d="M309.5,82.7l-8.4,1.4l-0.1-0.3l8.8-9.3L317,64c-0.7,4.2-1.4,8.4-2.1,12.5v12.8l-0.2,0.2L309.5,82.7z"/>
<g class="st2">
	<path class="st1" d="M14.8,82.1l-0.6-0.5h-0.1l-0.8-1.9L13,78.5l-0.3-1.3l-0.1-1.5v-1.2l0.4-2.5l0.3-1.2l0.4-1.2l0.7-1.6l1.4-2.1
		l1.2-1.8l0.9-0.6l0.9-0.8l0.5-0.3l0.5-0.3l0.6-0.2l0.6-0.1l0.5,0l0.5,0.1l1.1,0.5l0.5,0.3l0.9,0.9l0.6,1.1l0.2,0.7l0.1,0.7l-0.5,1
		l-1,0.3L23.7,67l0.2-1.5L23.8,65l-0.3-0.5L23,64l-0.5-0.3l-0.6-0.2l-0.6-0.1l-0.6,0.1l-0.6,0.2l-1.9,1.2l-1.7,2l-0.5,0.9l-0.3,0.6
		l-0.4,0.5l-0.4,1L14.3,72L14,73.3l-0.2,1.3v2.5l0.2,1.2l0.4,1.2l0.6,1l0.4,0.4l0.4,0.3l0.5,0.2l0.5,0.2h0.5l1.2-0.2l1.1-0.5
		l1.9-1.3l1.8-1.6l1.4-1.8l0.5,0.2l0,0.4l-0.5,0.4l-0.3,0.6l-0.4,0.6l-0.7,1.2L22,80.7l-0.4,0.4L21,81.5L20.7,82l-2.3,0.8l-0.7,0.1
		l-1.8-0.3L14.8,82.1z"/>
	<path class="st1" d="M26.3,81.5l-0.2-0.5l0.1-1.2v-1l0.1-1.1l0.5-2.3l0.8-2.4l0.2-0.6l0.3-1.2l0.8-2.3l0.2-0.6l0.1-0.7l0.6-1
		l2.2-6.3l0.9,0.2l0.4,0.4l0.2,0.5l-0.2,0.5l-0.5,0.4L31,66.8l-0.5,1.8L30,69.6l-0.8,2.3l-1.2,4.3l-0.3,2.3l-0.1,1.1l0,0.5l0.1,0.5
		l0.6-0.2l0.5-0.3l0.8-0.8l0.5-0.4l0.4-0.6l0.5-0.4l0.8-0.4l0.5-0.4l0.2-0.1l0.1,0.3l-0.2,0.2l-0.1,0.6l-0.5,0.6l-0.6,0.6l-1,1.2
		l-1.3,0.9l-0.3,0.4l-0.1,0.5l-1.5,0.3l-0.4-0.2L26.3,81.5z"/>
	<path class="st1" d="M34,77.5l0.2-0.7l0.3-0.6l0.4-1.5l0.6-1.4l0.1-0.6l0.2-0.3l0.1-0.8l0.2-0.4l0.2-1.5l0-0.6v-0.6l-0.3-0.6
		l0.4-0.4l0.5-0.2l0.5,0l0.5,0.2l0.3,0.5v0.5l-0.4,1l-0.3,1.2L36.4,74l-0.3,1.3L35,78.8l-0.4,1.9l0.6,0.3l-0.1,0.7l-0.2,0.7
		l-0.3,0.7l-1.1,0.1L33.1,82v-0.8l0.5-1.9l0.1-0.6l0.2-0.5L34,77.5z M41.8,61.5L41.3,62l-0.5,0.2l-0.4,0.2l0.2,1l-0.1,0.5l-0.3,0.3
		L39.7,64l-0.4-0.4L38.9,63l-0.3-0.7l-0.1-0.7l0.2-0.6l0.6-0.3l0.4,0.2l1.2,0.1l0.6,0.1L41.8,61.5z"/>
	<path class="st1" d="M40.1,81.3l-0.3-0.4l-0.1-0.5l0-0.3l-0.3-0.7l0.1-1.3l0.5-2.4l0.8-2.2l1.5-3.8l0.3-0.4l0.2-0.5l0.4-0.4
		l0.1-0.7l1.1-0.7l0.5-0.2l0.5-0.1l0.7,0.3l0.4,0.5l0.4,0.4l-0.4,1l-1.2-0.2l-0.5,0.2l-0.5,0.5l-0.7,0.9l-0.6,1.1l-0.6,1.2l-0.5,1.2
		L41.4,75l-0.3,1.2l-0.3,2.3v1.4l0.3,0.6l0.5,0.2l0.4-0.1l1.1-0.6l1.2-1l2.4-2.3l0.5-0.2l0.2,0.3l-0.3,0.5l-0.2,0.7l-0.4,0.3
		l-0.8,0.9L45,79.7l-0.7,1l-0.6,0.4l-0.5,0.3l-0.3,0.5l-0.6,0.5l-0.5-0.1l-0.2,0.2L40.1,81.3z"/>
	<path class="st1" d="M51.9,76.9l0.2-0.5l0.5-0.4l0.7-0.9l0.9-0.9l0.8-1l0.6-1l0.2-0.5l0.6-0.3l0.4-0.4l1.2-1.4l0.5-0.4l1.1-1.7
		l0.5,0l0.5,0.2l0.3,0.4l0.5,0.1l-0.4,0.5l-0.9,0.7L59.5,70l-0.7,0.9l-0.9,0.9l-0.1,0.6l-0.3,0.6l-0.7,0.9l0,1.2l0.1,2.5l0.2,1.3
		l0.2,1.2l0.3,1.1l0.7,0.6l-0.2,0.7l-0.5,0.1l-0.6-0.3l-0.5-0.5l-0.2-0.9l-0.3-0.7l-0.5-3.3l-0.1-1.2l-0.1-0.5L54.4,76l-3.2,4.3
		l-0.4,1.3L50.4,82l-0.6-0.1l-0.5-0.4L49,81l0.4-2.3l0.7-3l0.2-1.2l0.5-1.9l0.1-0.6l0.4-1.2l0.3-1.2l0-0.6l0.5-0.5l1.4-5.3l0.2-1.1
		l0.2-1.2l0.5-0.2l0.7,0l0.4,0.3l0,0.6l-0.1,0.6l-0.4,1L54.4,65l-0.9,2.6l-0.1,0.6l-0.1,0.6l-0.2,0.5l-0.3,0.5l-0.2,0.5l0,0.9
		l-0.3,0.6l-0.5,1.9l-0.2,0.6L50.8,77l0,1.2L51.9,76.9z"/>
	<path class="st1" d="M68.8,82.2l-0.3-0.5l-0.2-0.6l-0.1-0.6v-1.2l0.2-1.2l0.2-1.2l0.6-2.3l1.2-3.6l-0.6-0.2l-0.4-0.5l-0.2-0.5
		l0.2-0.6l0.5-0.2l1.2-0.1l1.1-2.2l0.6-1.6l0.3-1.1l0.1-0.5l-0.1-0.7l0.3-0.4l0.6-0.1l0.6,0.3l0.4,0.6l0.1,0.6l-0.2,0.4l-0.7,1
		l-0.2,0.7l-0.7,1.2l-0.2,0.6l-0.1,0.6l0.3,0.1l0.7-0.1l2.1-0.5l1.2-0.2h1.1l-0.4,0.6l-0.6,0.2L77,68.8l-3.7,0.9l-1.2,0.5L71,73
		l-1.6,5.2v1.6l0.1,0.6l0.3,0.5l1.1-0.5l1.1-0.6l0.6-0.2l0.9-0.7l1.1-0.7l0.9-0.5l0.5,0.4l-0.7,1.1l-0.5,0.4l-0.5,0.4l-1.1,0.8
		L71,81.9l-1.1,0.5l-0.6,0.2L68.8,82.2z"/>
	<path class="st1" d="M82.4,66.6l0.7,0.3l0.7,0.5l1.7,2.8l0.3,1.6v1.5l-0.2,1.3l-0.4,1.2l-0.5,1.2l-0.4,0.6l-0.2,0.3l-0.6,1l-2,1.7
		L80.8,81l-0.4,0.5l-1.6,0.9l-0.6,0.1l-0.7-0.2l-0.4-0.5l-0.7-1.3v-1.3l0.5-3.7l1.1-2.9l0.2-1l0.8-1.1l0.5-1.2l0.4-0.5l1.2-1.4
		l0.5-0.5L82.4,66.6z M81.6,69.2l-0.3,0.4l-0.3,0.5l-0.6,0.6l-0.5,0.3l-1.6,3.8L78,76.3l-0.3,1.4l-0.1,0.7l0.1,1l0.2,0.7l0.4,0.5
		l0.5,0l1.4-0.9l0.9-0.7l1.1-1l1.5-1.8l0.4-1.2l0.5-1.2l0.1-0.8v-0.8l-0.1-0.7l-0.4-1.3l-0.3-0.6l-0.7,0.4l-1-0.7H81.6z"/>
	<path class="st1" d="M94.4,82.3L93.9,82l-0.6-1.7l-0.2-1.4v-0.6l0.1-0.6l0.8-2.3l0.3-1.1l1.9-3l0.7-1l0.5-0.5L99,68l1.7-0.9l1,0.2
		l0.5,0.2h0.2l0.3,0.5l0.2,0.6l1.1-0.9l0.5,0.2l0.5,0.2l0.2,0.6l-0.1,0.6l-0.4,0.5l-0.5,0.9l-0.4,1.1l-0.6,2.6l-0.1,0.7l-0.4,0.6
		v1.7l-0.2,2.4v1.3l0.1,0.7l0.3,0.1l0.7-0.5l0.4,0.4l-0.5,1.1l-0.3,0.2l-0.3,0.1l-0.5-0.1l-0.5-0.3l-0.4-0.5l-0.2-0.5v-1.8l0.6-5
		l-0.7,1l-0.6,1.1l-1.5,1.8l-0.3,0.7l-0.5,0.7l-0.4,0.3l-1,1.7l-1.2,0.5l-0.8,0.1L94.4,82.3z M95.2,80.9l0.7-0.2l0.3-0.5l0.5-0.3
		l0.4-1l0.5-0.4L98,78l0.5-0.4l0.2-0.6l0.3-0.5l0.7-0.8l2.3-3.9l0.5-1l0.3-1.2l-1-0.3l-0.5-0.4l-0.6,0.2l-0.6,0.3l-0.5,0.4l-0.8,0.6
		L98.3,71L97.4,72l-0.6,1L96.2,74l-0.5,1.2L95,76.3l-0.2,1.2l-0.2,0.8L94.4,79v0.6l0.1,0.6l0.2,0.5L95.2,80.9z"/>
	<path class="st1" d="M106.6,81.7l-0.1-0.5v-0.7l0-2.3l0.6-2.3l0.4-0.9l1.2-2.2l0.3-0.6l1.6-2.6l0.3-0.5l2-1.6l0.5-0.3l0.7-0.1
		l1,0.7l0.1,0.6l0.1,0.5l0.1,0.3l-0.2,0.4l-0.3,0.4l-0.4-0.1l-0.3-0.2l-0.2-0.5l-0.2-0.2l-0.4,0.2l-0.4,0.4l-0.5,0.3l-2.2,3
		l-0.2,0.7l-0.5,0.5L109,75l-0.6,0.8l-0.2,1.2l-0.6,0.8l0.1,1.5l0.1,1.2l0.6,0.2l0.8-0.4l1.1-1l0.5-0.9l0.5-0.4l0.3-0.5l0.5-0.4
		l0.6-1.1l0.6-1l0.7-1l0.3-0.6l0.4-0.4l0.3-1.2l0.3-1.1l0.8-1.2l0.6-1.3l0.2-0.6l0-0.5l0.2-0.6l0.4-1l1.1-3.6l0.5-1.2l0.4-0.2
		l0.6,0.3l0.2,0.4l-0.1,0.5l-0.2,0.6l-0.3,0.6l-0.5,0.9l-0.1,0.5l-0.3,1.2l-0.4,1.1l-0.1,0.7l-0.5,1.7l-0.3,1.6l-0.3,2.2l-0.3,1.3
		l-0.4,1.1l-0.3,1l-0.3,1.2l-0.1,2.3L116,80l0.2,0.6l0.6-0.3l0.9-0.7l0.1,0.5l-0.2,0.7l-0.6,1.3l-1.2,0.3l-0.4-0.2l-0.3-0.5L115,81
		l-0.2-1.5l0.1-1.8l0.6-2.4l0.3-1l0.5-1.4l0.2-1.1l-1.4,2.9l-0.4,0.6l-0.2,0.7l-0.3,0.4l-0.5,0.7l-1,1.3l-0.2,0.5l-0.4,0.2l-0.6,1.2
		l-1.4,1.2l-1.2,0.5l-0.9,0.2l-0.5,0.2l-0.5-0.3L106.6,81.7z"/>
	<path class="st1" d="M120.1,81.7l-0.1-0.5v-0.7l0-2.3l0.6-2.3L121,75l1.2-2.2l0.3-0.6l1.6-2.6l0.3-0.5l2-1.6l0.5-0.3l0.7-0.1l1,0.7
		l0.1,0.6l0.1,0.5l0.1,0.3l-0.2,0.4l-0.3,0.4l-0.4-0.1l-0.3-0.2l-0.2-0.5l-0.2-0.2l-0.4,0.2l-0.4,0.4l-0.5,0.3l-2.2,3l-0.2,0.7
		l-0.5,0.5l-0.3,0.7l-0.6,0.8l-0.2,1.2l-0.6,0.8l0.1,1.5l0.1,1.2l0.6,0.2l0.8-0.4l1.1-1l0.5-0.9l0.5-0.4l0.3-0.5l0.5-0.4l0.6-1.1
		l0.6-1l0.7-1l0.3-0.6l0.4-0.4l0.3-1.2l0.3-1.1l0.8-1.2l0.6-1.3l0.2-0.6l0-0.5l0.2-0.6l0.4-1l1.1-3.6l0.5-1.2l0.4-0.2l0.6,0.3
		l0.2,0.4l-0.1,0.5l-0.2,0.6l-0.3,0.6l-0.5,0.9l-0.1,0.5l-0.3,1.2l-0.4,1.1l-0.1,0.7l-0.5,1.7l-0.3,1.6l-0.3,2.2l-0.3,1.3l-0.4,1.1
		l-0.3,1l-0.3,1.2l-0.1,2.3l0.1,0.6l0.2,0.6l0.6-0.3l0.9-0.7l0.1,0.5l-0.2,0.7l-0.6,1.3l-1.2,0.3l-0.4-0.2l-0.3-0.5l-0.2-0.7
		l-0.2-1.5l0.1-1.8l0.6-2.4l0.3-1l0.5-1.4l0.2-1.1l-1.4,2.9l-0.4,0.6l-0.2,0.7l-0.3,0.4l-0.5,0.7l-1,1.3l-0.2,0.5l-0.4,0.2l-0.6,1.2
		l-1.4,1.2l-1.2,0.5l-0.9,0.2l-0.5,0.2l-0.5-0.3L120.1,81.7z"/>
</g>
<g class="st2">
	<path class="st1" d="M57.1,116.8l-0.4-0.2l-0.6-1.7l-0.2-1.4v-0.6l0.1-0.6l0.8-2.3l0.3-1.1l1.9-3l0.7-1l0.5-0.5l1.5-1.7l1.7-0.9
		l1,0.2l0.5,0.2h0.2l0.3,0.5l0.2,0.6l1.1-0.9l0.5,0.2l0.5,0.2l0.2,0.6l-0.1,0.6l-0.4,0.5l-0.5,0.9l-0.4,1.1l-0.6,2.6l-0.1,0.7
		l-0.4,0.6v1.7l-0.2,2.4v1.3l0.1,0.7l0.3,0.1l0.7-0.5l0.4,0.4l-0.5,1.1l-0.3,0.2l-0.3,0.1l-0.5-0.1l-0.5-0.3l-0.4-0.5l-0.2-0.5v-1.8
		l0.6-5l-0.7,1l-0.6,1.1l-1.5,1.8l-0.3,0.7l-0.5,0.7l-0.4,0.3l-1,1.7l-1.2,0.5l-0.8,0.1L57.1,116.8z M57.9,115.4l0.7-0.2l0.3-0.5
		l0.5-0.3l0.4-1l0.5-0.4l0.4-0.5l0.5-0.4l0.2-0.6l0.3-0.5l0.7-0.8l2.3-3.9l0.5-1l0.3-1.2l-1-0.3l-0.5-0.4l-0.6,0.2l-0.6,0.3
		l-0.5,0.4l-0.8,0.6l-0.5,0.7l-0.9,1.1l-0.6,1l-0.5,0.9l-0.5,1.2l-0.7,1.2l-0.2,1.2l-0.2,0.8l-0.1,0.7v0.6l0.1,0.6l0.2,0.5
		L57.9,115.4z"/>
	<path class="st1" d="M75.8,115.8l-0.3-0.4l-0.1-0.5l0-0.3l-0.3-0.7l0.1-1.3l0.5-2.4l0.8-2.2l1.5-3.8l0.3-0.4l0.2-0.5l0.4-0.4
		l0.1-0.7l1.1-0.7l0.5-0.2l0.5-0.1l0.7,0.3l0.4,0.5l0.4,0.4l-0.4,1L81,103l-0.5,0.2l-0.5,0.5l-0.7,0.9l-0.6,1.1L78,107l-0.5,1.2
		l-0.4,1.2l-0.3,1.2l-0.3,2.3v1.4l0.3,0.6l0.5,0.2l0.4-0.1l1.1-0.6l1.2-1l2.4-2.3l0.5-0.2l0.2,0.3l-0.3,0.5l-0.2,0.7l-0.4,0.3
		l-0.8,0.9l-0.9,0.6l-0.7,1l-0.6,0.4l-0.5,0.3l-0.3,0.5l-0.6,0.5l-0.5-0.1l-0.2,0.2L75.8,115.8z"/>
	<path class="st1" d="M90.4,101.1l0.7,0.3l0.7,0.5l1.7,2.8l0.3,1.6v1.5l-0.2,1.3l-0.4,1.2l-0.5,1.2l-0.4,0.6l-0.2,0.3l-0.6,1l-2,1.7
		l-0.5,0.5l-0.4,0.5l-1.6,0.9l-0.6,0.1l-0.7-0.2l-0.4-0.5l-0.7-1.3v-1.3L85,110l1.1-2.9l0.2-1l0.8-1.1l0.5-1.2l0.4-0.5l1.2-1.4
		l0.5-0.5L90.4,101.1z M89.7,103.8l-0.3,0.4l-0.3,0.5l-0.6,0.6l-0.5,0.3l-1.6,3.8l-0.5,1.4l-0.3,1.4l-0.1,0.7l0.1,1l0.2,0.7l0.4,0.5
		l0.5,0l1.4-0.9l0.9-0.7l1.1-1l1.5-1.8l0.4-1.2l0.5-1.2l0.1-0.8v-0.8l-0.1-0.7l-0.4-1.3l-0.3-0.6l-0.7,0.4l-1-0.7H89.7z"/>
	<path class="st1" d="M95.9,116l-0.2-0.5l0.1-1.2v-1l0.1-1.1l0.5-2.3l0.8-2.4l0.2-0.6l0.3-1.2l0.8-2.3l0.2-0.6l0.1-0.7l0.6-1
		l2.2-6.3l0.9,0.2l0.4,0.4l0.2,0.5l-0.2,0.5l-0.5,0.4l-1.8,4.4l-0.5,1.8l-0.5,1.1l-0.8,2.3l-1.2,4.3l-0.3,2.3l-0.1,1.1l0,0.5
		l0.1,0.5l0.6-0.2l0.5-0.3l0.8-0.8l0.5-0.4l0.4-0.6l0.5-0.4l0.8-0.4l0.5-0.4l0.2-0.1l0.1,0.3l-0.2,0.2l-0.1,0.6l-0.5,0.6l-0.6,0.6
		l-1,1.2l-1.3,0.9l-0.3,0.4l-0.1,0.5l-1.5,0.3l-0.4-0.2L95.9,116z"/>
	<path class="st1" d="M102.3,116l-0.2-0.7l0.4-1.8l0.1-0.6l0-0.5l0.6-2.6l0.7-2.5l0.9-2.7l0.7-1.5l0.2-0.6v-0.2l0.5-0.1h1l0.5,0.1
		v0.6l-0.2,0.7l-0.8,0.7l-0.4,1l-0.3,0.4l-0.4,1.3l-0.7,1.7l-0.3,1.2l-0.6,3.4l0.4-0.3l1.1-1.1l0.9-0.4l0.8-0.9l1.3-1.5l0.6-0.8
		l0.6-0.7l0.4-0.6l0.4-0.4l0.4-0.2l0.2-0.5l1.3-2.2l0.2-0.5l0.1-0.7l0.2-0.5l0.5-0.2l0.6,0.2l0.2,0l0.7,0.6l-0.2,0.8l-0.5,0.5
		l-0.3,0.6l-0.6,1.6l-0.3,0.6l-0.2,1.2L112,110l-0.2,0.7l0,0.4l-0.7,2.9l-0.1,0.7l0,0.4l1-0.7l0.9-0.8l0.5-0.3l0.9-0.9l0.5-0.2
		l0.2,0.5l-0.5,0.9l-1.7,1.7l-1.4,1.3l-0.7,0.2l-0.7-0.3l-0.3-0.6l-0.1-0.6v-0.5l0.5-2.3l0.1-0.6l1.5-4.7l0.1-0.5l-0.4,0.3l-0.4,0.4
		l-0.7,1l-0.4,0.4l-0.8,1l-2.1,2.4l-0.8,0.9l-0.5,0.5l-0.6,0.8l-1,1.8l-0.3,0.4l-0.4,0.2l-0.6-0.1L102.3,116z"/>
	<path class="st1" d="M129.4,116.9l-0.5-0.2l-0.3-0.4l-0.2-0.6l-0.1-0.7l0.1-0.7l0.2-0.7l0.2-1l0.5-1.1l0.2-0.7l0.2-0.5l0.1-0.4
		v-0.5l0.5-1.4l1.1-2.4l0.2-0.7l-1,0.9l-1.9,2.3l-0.5,0.4l-0.3,0.5L127,110l-0.8,0.9l-0.3,0.5l-0.2,0.5l-0.9,0.7l-0.5,0.5l-1.4,2.3
		l-0.3,0.4l-0.3,0.2l-0.3-0.2l-0.3-0.5l-0.2-0.5l0.5-1l0.7-2.6l0.3-1.4l0.7-2.4l0.5-2.4l-0.7,0.4l-0.4,0.5l-0.5,0.4l-2.3,3l-1.4,2.3
		l-0.8,1.1l-0.8,2.4l-0.3,0.6l-0.2,0.4l-0.3,0.2l-0.5-0.1l-0.3-0.4l-0.2-0.5l-0.1-0.5l0.3-0.5l0.2-0.6l0.4-2l0.2-0.5V110l0.6-2.6
		l0.6-2.8l0.6-2.3l0.5-1l0.5-0.1l0.5,0.1l0.3,0.3l0.3,1l-0.4,0.4l-0.7,1l-0.2,0.6l-1,3.9l-0.2,1.5l0.6-0.7l0.7-1.1l0.5-0.5l0.6-1.1
		l1.6-1.8l0.3-0.5l0.9-0.7l0.4-0.4l0.2-0.5l0.1,0l0.9-0.6l0.5,0.2l0.6,0.2l-0.1,1.3l-0.2,1.3l-0.3,1.2l-0.2,0.5l0,0.3l0.1,0.4
		l-0.4,1l-0.9,3.1l0.7-0.6l1.3-1.5l0.2-0.5l1.8-1.8l0.4-0.2l0-0.1l0.1-0.3l0.7-0.9l1-1.1l0.8-1l0.1-0.4l0.5-0.2l0.4-0.4l0.4-0.3
		l0.2-0.6l0.5-0.5l0.1-0.6l0.4-0.3l0.5,0.2l0.5,0.3l0.2,0.3l-0.1,0.6l-0.5,1.1l-0.2,0.4l-0.4,0.5l-0.3,0.5l-0.9,1.8l-0.2,0.8
		l-0.3,0.5l-0.1,0.6l-0.5,0.7l-0.2,0.5l-0.2,1.3l-0.7,2.2l-0.2,1.2l0.1,1.6l0.5,0.2l0,0.4l-0.5,0.4L129.4,116.9z"/>
	<path class="st1" d="M134,115.2l-0.3-0.5l-0.1-0.6l0.1-0.5l0.1-0.5l0.5-0.5l0.2-0.8l1-2.9l0.1-0.6l0.5-1.1l0.6-2.5l0.3-1.2
		l-0.1-0.3l0-0.3l-0.1-0.3V102l0.1-0.6l0.2-0.4l0.4-0.2l0.9,0.2l0.4,0.6l0.1,0.6l0.1,0.3l-0.3,0.4l-0.4,0.3l-1.8,6.6l-0.2,0.6
		l0.4-0.4l0.5-1.2l0.9-0.8l3.3-3.6l0.6-0.4l1-1l0.5-0.4l0.5-0.7l0.6,0.2l0.5,0.4L145,104l-0.5,2.3l-1.7,5.6l-0.3,1.2l-0.2,1.3
		l-0.1,1.4l0.2,0.1l0.5-0.1l0.3,0.1l-0.2,0.5l-0.3,0.5l-0.4,0.3l-0.8-0.2l-0.4-0.5l-0.3-1l0.5-2.6l0.9-3.5l1.4-4.7l-0.7,0.3
		l-0.3,0.4l-0.4,0.2l0,0.2l-0.2,0.4l-0.4,0.4l-1.8,1.7l-0.5,0.5l-0.2,0.5l-0.8,0.8l-0.7,0.9l-0.6,1l-1.6,3.2l-0.4,0.3l-0.4,0.2
		L134,115.2z"/>
</g>
<rect class="st3" width="350" height="217"/>
</svg>
