<?xml version="1.0" encoding="utf-8"?>
<!-- Generator: Adobe Illustrator 24.3.0, SVG Export Plug-In . SVG Version: 6.00 Build 0)  -->
<svg version="1.1" id="Layer_1" xmlns="http://www.w3.org/2000/svg" xmlns:xlink="http://www.w3.org/1999/xlink" x="0px" y="0px"
	 viewBox="0 0 319 153" style="enable-background:new 0 0 319 153;" xml:space="preserve">
<style type="text/css">
	.st0{fill:none;stroke:#343A40;stroke-width:2;stroke-linecap:round;stroke-miterlimit:10;}
	.st1{fill:#343A40;}
	.st2{enable-background:new    ;}
	.st3{fill:none;}
</style>
<path class="st0" d="M223,133c52.1-19.4,26.2-49.8-13.6-56.6"/>
<path class="st1" d="M213,77l3.7,7.7l-0.3,0.1L205.1,79L193,75l12.6-1.5l12.3-3.5l0.2,0.2L213,77z"/>
<g class="st2">
	<path class="st1" d="M25.6,138.1l-0.4-0.4h-0.1l-0.6-1.5l-0.3-0.9l-0.2-1l-0.1-1.1v-0.9l0.3-1.9l0.2-0.9l0.3-0.9l0.5-1.2l1.1-1.6
		l0.9-1.3l0.7-0.5l0.7-0.6L29,123l0.4-0.2l0.4-0.1l0.5,0l0.4,0l0.4,0.1l0.8,0.4l0.4,0.3l0.7,0.7l0.5,0.9l0.1,0.5l0,0.5l-0.4,0.8
		l-0.8,0.3l-0.1-0.4l0.1-1.1l-0.1-0.4l-0.2-0.4l-0.3-0.3l-0.4-0.3l-0.4-0.2l-0.4-0.1l-0.4,0.1l-0.4,0.1l-1.5,0.9l-1.3,1.5l-0.4,0.6
		l-0.2,0.4l-0.3,0.4l-0.3,0.7l-0.6,1.8l-0.2,1l-0.2,1v1.9l0.2,0.9l0.3,0.9l0.5,0.8l0.3,0.3l0.3,0.3l0.4,0.2l0.4,0.1h0.4l0.9-0.1
		l0.8-0.3l1.5-1l1.3-1.2l1.1-1.4l0.4,0.1l0,0.3l-0.4,0.3l-0.3,0.5l-0.3,0.4l-0.5,0.9l-1.1,0.9l-0.3,0.3l-0.4,0.3L30,138l-1.7,0.6
		l-0.5,0l-1.4-0.3L25.6,138.1z"/>
	<path class="st1" d="M34.3,137.6l-0.2-0.4l0.1-0.9v-0.8l0.1-0.8l0.4-1.8l0.6-1.9l0.2-0.4l0.3-0.9l0.6-1.7l0.1-0.5l0.1-0.5l0.4-0.8
		l1.6-4.8l0.6,0.1l0.3,0.3l0.1,0.4l-0.1,0.4l-0.3,0.3l-1.3,3.4l-0.3,1.4l-0.4,0.8l-0.6,1.8l-0.9,3.2l-0.3,1.8l-0.1,0.9l0,0.3l0,0.3
		l0.4-0.2l0.4-0.2l0.6-0.6l0.4-0.3l0.3-0.4l0.3-0.3l0.6-0.3l0.4-0.3l0.2,0l0,0.2l-0.1,0.2l-0.1,0.4l-0.3,0.4L38,136l-0.8,0.9l-1,0.7
		l-0.3,0.3l-0.1,0.4l-1.1,0.2l-0.3-0.1L34.3,137.6z"/>
	<path class="st1" d="M40.1,134.6l0.1-0.6l0.2-0.4l0.3-1.1l0.4-1.1l0.1-0.5l0.1-0.2l0.1-0.6l0.1-0.3l0.2-1.1l0-0.5v-0.5l-0.3-0.5
		l0.3-0.3l0.4-0.2l0.4,0l0.4,0.2l0.2,0.4v0.3l-0.3,0.8l-0.2,0.9l-0.8,2.6l-0.2,1l-0.9,2.6l-0.3,1.4l0.5,0.3l-0.1,0.6l-0.2,0.5
		l-0.3,0.6l-0.8,0.1l-0.2-0.9v-0.6l0.3-1.5l0-0.5l0.2-0.4L40.1,134.6z M46.1,122.4l-0.4,0.3l-0.4,0.1l-0.3,0.2l0.1,0.8l-0.1,0.4
		l-0.2,0.2l-0.3-0.1l-0.3-0.3l-0.3-0.4l-0.2-0.5l-0.1-0.5l0.1-0.4l0.4-0.2l0.3,0.1l0.9,0.1l0.4,0.1L46.1,122.4z"/>
	<path class="st1" d="M44.8,137.5l-0.2-0.3l-0.1-0.4l0-0.2l-0.2-0.5l0.1-1l0.4-1.8l0.6-1.7l1.1-2.9l0.2-0.3l0.1-0.4l0.3-0.3l0.1-0.5
		l0.9-0.5l0.4-0.2l0.4-0.1l0.6,0.2l0.3,0.4l0.3,0.3l-0.3,0.8l-0.9-0.2l-0.4,0.2l-0.4,0.4l-0.5,0.7l-0.5,0.8l-0.4,0.9l-0.4,0.9
		l-0.3,1l-0.2,0.9l-0.2,1.7v1.1l0.3,0.5L46,137l0.3-0.1l0.9-0.5l0.9-0.8l1.9-1.8l0.4-0.2l0.1,0.3l-0.3,0.4l-0.1,0.5l-0.3,0.3
		l-0.6,0.7l-0.6,0.5L48,137l-0.5,0.3l-0.4,0.2l-0.3,0.4l-0.5,0.3l-0.3-0.1l-0.1,0.1L44.8,137.5z"/>
	<path class="st1" d="M53.8,134.2l0.2-0.4l0.4-0.3l0.6-0.7l0.7-0.7l0.6-0.7l0.4-0.7l0.2-0.3l0.4-0.3l0.3-0.3l0.9-1.1l0.4-0.3
		l0.8-1.3l0.4,0l0.3,0.1l0.2,0.3l0.4,0.1l-0.3,0.4l-0.7,0.5l-0.6,0.4l-0.5,0.6l-0.7,0.7l-0.1,0.5l-0.2,0.4l-0.5,0.7l0,0.9l0.1,1.9
		l0.1,1l0.2,0.9l0.3,0.8l0.5,0.4l-0.2,0.5l-0.4,0.1l-0.5-0.3l-0.4-0.3l-0.1-0.6l-0.2-0.5l-0.4-2.5l0-0.9l0-0.4l-0.6,0.6l-2.4,3.2
		l-0.3,1l-0.3,0.3l-0.5,0l-0.4-0.3l-0.3-0.5l0.3-1.8l0.5-2.2l0.2-0.9l0.4-1.5l0.1-0.5l0.3-0.9l0.2-0.9l0-0.5l0.4-0.4l1.1-4l0.2-0.9
		l0.1-0.9l0.4-0.2l0.5,0l0.3,0.2l0,0.5l0,0.4l-0.3,0.8l-0.5,1.4l-0.6,2l-0.1,0.4l-0.1,0.5l-0.2,0.4l-0.3,0.4l-0.2,0.4l0,0.6
		l-0.2,0.4l-0.4,1.5l-0.2,0.4l-0.5,2l0,0.9L53.8,134.2z"/>
	<path class="st1" d="M66.6,138.2l-0.3-0.4l-0.1-0.4l-0.1-0.5V136l0.1-0.9l0.2-0.9l0.5-1.8l0.9-2.7l-0.5-0.2l-0.3-0.3l-0.1-0.4
		l0.2-0.5l0.4-0.2l0.9-0.1l0.8-1.7l0.4-1.2l0.3-0.8l0-0.4l-0.1-0.6l0.3-0.3l0.4-0.1l0.5,0.2l0.3,0.4l0.1,0.5l-0.1,0.3l-0.5,0.7
		l-0.1,0.5l-0.5,0.9l-0.1,0.5l0,0.5l0.2,0l0.5-0.1l1.6-0.4l0.9-0.1h0.8l-0.3,0.5l-0.5,0.1l-0.3,0.3l-2.8,0.7l-0.9,0.3l-0.8,2.1
		l-1.2,4v1.2l0.1,0.4l0.3,0.4l0.9-0.4l0.8-0.5l0.5-0.2l0.6-0.6l0.8-0.6l0.6-0.4l0.4,0.3l-0.6,0.9l-0.4,0.3l-0.4,0.3l-0.9,0.6l-1.6,1
		l-0.9,0.4l-0.4,0.1L66.6,138.2z"/>
	<path class="st1" d="M77,126.3l0.5,0.2l0.5,0.3l1.3,2.1l0.2,1.2v1.1l-0.2,1l-0.3,0.9l-0.4,0.9l-0.3,0.5l-0.2,0.2l-0.4,0.8l-1.6,1.3
		l-0.4,0.3l-0.3,0.4l-1.3,0.7l-0.5,0.1l-0.5-0.2l-0.3-0.4l-0.5-1v-1l0.3-2.8l0.8-2.2l0.2-0.8l0.6-0.8l0.4-0.9l0.3-0.4l0.9-1l0.4-0.4
		L77,126.3z M76.4,128.3l-0.2,0.3L76,129l-0.4,0.5l-0.3,0.3l-1.2,2.9l-0.3,1l-0.2,1.1l0,0.6l0,0.8l0.2,0.5l0.3,0.3l0.4,0l1.1-0.7
		l0.7-0.6l0.8-0.8l1.1-1.3l0.3-0.9l0.3-0.9l0.1-0.6v-0.6l-0.1-0.6l-0.3-1l-0.2-0.4l-0.5,0.3l-0.7-0.5H76.4z"/>
	<path class="st1" d="M86.1,138.2l-0.3-0.2l-0.5-1.3l-0.1-1.1v-0.5l0.1-0.5l0.6-1.8l0.2-0.9l1.4-2.3l0.6-0.8l0.3-0.4l1.2-1.3
		l1.3-0.7l0.8,0.1l0.4,0.2h0.1l0.2,0.3l0.2,0.5l0.9-0.7l0.4,0.1l0.3,0.2l0.2,0.4l-0.1,0.5l-0.3,0.3l-0.4,0.7l-0.3,0.8l-0.5,1.9
		l-0.1,0.6l-0.3,0.5v1.3l-0.2,1.8v1l0.1,0.5l0.2,0.1l0.5-0.4l0.3,0.3l-0.4,0.9l-0.3,0.2l-0.3,0.1l-0.4-0.1l-0.3-0.2l-0.3-0.3
		l-0.2-0.4v-1.4l0.5-3.8l-0.6,0.8l-0.5,0.8l-1.1,1.4l-0.2,0.5l-0.3,0.5l-0.3,0.2l-0.8,1.3l-0.9,0.4l-0.6,0.1L86.1,138.2z
		 M86.7,137.2l0.6-0.2l0.3-0.3l0.4-0.2l0.3-0.8l0.4-0.3l0.3-0.4l0.4-0.3l0.2-0.5l0.2-0.3l0.6-0.6l1.8-3l0.4-0.8l0.2-0.9l-0.7-0.2
		l-0.4-0.3l-0.4,0.1l-0.5,0.2l-0.4,0.3l-0.6,0.4l-0.4,0.6l-0.7,0.8l-0.5,0.7l-0.4,0.7l-0.4,0.9l-0.5,0.9l-0.2,1l-0.2,0.6l-0.1,0.5
		v0.4l0.1,0.5l0.2,0.4L86.7,137.2z"/>
	<path class="st1" d="M95.4,137.8l-0.1-0.4v-0.5l0-1.7l0.4-1.8l0.3-0.7l0.9-1.6l0.3-0.4l1.2-2l0.2-0.4l1.5-1.2l0.3-0.2l0.5-0.1
		l0.7,0.6l0.1,0.5l0.1,0.4l0,0.2l-0.2,0.3l-0.3,0.3l-0.3-0.1l-0.2-0.2l-0.1-0.4l-0.1-0.1l-0.3,0.2l-0.3,0.3l-0.4,0.3l-1.7,2.3
		l-0.2,0.5l-0.3,0.3l-0.3,0.5l-0.4,0.6l-0.2,0.9l-0.4,0.6l0.1,1.1l0,1l0.4,0.2l0.6-0.3l0.9-0.7l0.4-0.7L99,135l0.3-0.4l0.4-0.3
		l0.5-0.8l0.5-0.8l0.6-0.8l0.2-0.5l0.3-0.3l0.3-0.9l0.2-0.8l0.6-0.9l0.5-1l0.1-0.5l0-0.4l0.1-0.5l0.3-0.7l0.8-2.7l0.3-1l0.3-0.2
		l0.4,0.2l0.2,0.3l0,0.4l-0.1,0.5l-0.2,0.5L105,124l0,0.4l-0.2,0.9l-0.3,0.8l-0.1,0.6L104,128l-0.2,1.2l-0.2,1.7l-0.2,1l-0.3,0.8
		l-0.2,0.7l-0.2,0.9l-0.1,1.8l0.1,0.4l0.1,0.4l0.5-0.2l0.7-0.6l0,0.4l-0.1,0.5l-0.4,1l-0.9,0.3l-0.3-0.2l-0.2-0.4l-0.2-0.5l-0.1-1.1
		l0-1.3l0.4-1.9l0.2-0.8l0.4-1l0.1-0.8l-1.1,2.2l-0.3,0.5l-0.2,0.5l-0.2,0.3l-0.3,0.6l-0.8,1l-0.2,0.4l-0.3,0.2l-0.5,0.9l-1,0.9
		l-0.9,0.3l-0.7,0.2l-0.4,0.1l-0.3-0.2L95.4,137.8z"/>
	<path class="st1" d="M105.7,137.8l-0.1-0.4v-0.5l0-1.7l0.4-1.8l0.3-0.7l0.9-1.6l0.3-0.4l1.2-2l0.2-0.4l1.5-1.2l0.3-0.2l0.5-0.1
		l0.7,0.6l0.1,0.5l0.1,0.4l0,0.2l-0.2,0.3l-0.3,0.3l-0.3-0.1l-0.2-0.2l-0.1-0.4l-0.1-0.1l-0.3,0.2l-0.3,0.3l-0.4,0.3l-1.7,2.3
		l-0.2,0.5l-0.3,0.3l-0.3,0.5l-0.4,0.6l-0.2,0.9l-0.4,0.6l0.1,1.1l0,1l0.4,0.2l0.6-0.3l0.9-0.7l0.4-0.7l0.3-0.3l0.3-0.4l0.4-0.3
		l0.5-0.8l0.5-0.8l0.6-0.8l0.2-0.5l0.3-0.3l0.3-0.9l0.2-0.8l0.6-0.9l0.5-1l0.1-0.5l0-0.4l0.1-0.5l0.3-0.7l0.8-2.7l0.3-1l0.3-0.2
		l0.4,0.2l0.2,0.3l0,0.4l-0.1,0.5l-0.2,0.5l-0.4,0.7l0,0.4l-0.2,0.9l-0.3,0.8l-0.1,0.6l-0.4,1.3l-0.2,1.2l-0.2,1.7l-0.2,1l-0.3,0.8
		l-0.2,0.7l-0.2,0.9l-0.1,1.8l0.1,0.4l0.1,0.4l0.5-0.2l0.7-0.6l0,0.4l-0.1,0.5l-0.4,1l-0.9,0.3l-0.3-0.2l-0.2-0.4l-0.2-0.5l-0.1-1.1
		l0-1.3l0.4-1.9l0.2-0.8l0.4-1l0.1-0.8l-1.1,2.2l-0.3,0.5l-0.2,0.5l-0.2,0.3l-0.3,0.6l-0.8,1l-0.2,0.4l-0.3,0.2l-0.5,0.9l-1,0.9
		l-0.9,0.3l-0.7,0.2l-0.4,0.1l-0.3-0.2L105.7,137.8z"/>
	<path class="st1" d="M121.4,138.2l-0.3-0.2l-0.5-1.3l-0.1-1.1v-0.5l0.1-0.5l0.6-1.8l0.2-0.9l1.4-2.3l0.6-0.8l0.3-0.4l1.2-1.3
		l1.3-0.7l0.8,0.1l0.4,0.2h0.1l0.2,0.3l0.2,0.5l0.9-0.7l0.4,0.1l0.3,0.2l0.2,0.4l-0.1,0.5l-0.3,0.3l-0.4,0.7l-0.3,0.8l-0.5,1.9
		l-0.1,0.6l-0.3,0.5v1.3l-0.2,1.8v1l0.1,0.5l0.2,0.1l0.5-0.4l0.3,0.3l-0.4,0.9l-0.3,0.2l-0.3,0.1l-0.4-0.1l-0.3-0.2l-0.3-0.3
		l-0.2-0.4v-1.4l0.5-3.8l-0.6,0.8l-0.5,0.8l-1.1,1.4l-0.2,0.5l-0.3,0.5l-0.3,0.2l-0.8,1.3l-0.9,0.4l-0.6,0.1L121.4,138.2z
		 M122,137.2l0.6-0.2l0.3-0.3l0.4-0.2l0.3-0.8l0.4-0.3l0.3-0.4l0.4-0.3l0.2-0.5l0.2-0.3l0.6-0.6l1.8-3l0.4-0.8l0.2-0.9l-0.7-0.2
		l-0.4-0.3l-0.4,0.1l-0.5,0.2l-0.4,0.3l-0.6,0.4l-0.4,0.6l-0.7,0.8l-0.5,0.7l-0.4,0.7l-0.4,0.9l-0.5,0.9l-0.2,1l-0.2,0.6l-0.1,0.5
		v0.4l0.1,0.5l0.2,0.4L122,137.2z"/>
	<path class="st1" d="M142,130.6l-0.6,0.6l0-0.1l-0.8,0.1l-0.9,0.2l-0.9,0.1l-0.4,0.7l-0.3,0.8l-0.3,1.9l-0.2,0.9l-0.7,1.9l-0.2,1
		l-0.3,0.6l-0.1,0.5l-0.1,0.5l-0.1,0.5l-0.7,1.6l-0.1,0.4l-0.1,0.5l-0.4,0.4l-0.6-0.1l-0.3-0.4l-0.1-0.6l0-0.6l0.2-0.4l0.4,0.2
		l0.1,0l0.6-1.7l0.3-0.9l0.1-0.9l0.3-0.4l0.2-0.7l0.2-0.4l0.2-1l0.4-1l0.1-0.5l0.7-2.6l-0.9,0.1l-0.2,0l-0.4,0.2l-1,0.2l-0.3-0.4
		l-0.2-0.5l0.2-0.3l0.3-0.2h1l1.7-0.2l0.3-0.8l0.5-2.2l0.3-0.8l0.1-0.4l0.2-0.2l0.1-0.5l0.3-1l0.2-0.5l0.5-0.7l0.2-0.1l0.2-0.5
		l0.5-0.9l0.6-0.8l0.5-0.9l0.7-0.1l0.6,0.3l0.2,0.3l0.3,0.9l0.4,0.6l0.3,0.9l0.1,0.3l-0.3,0.3l-0.4,0.1l-0.7-1.6l-0.3-0.3l-0.3-0.2
		l-0.4,0.3l-0.4,0.4l-1,1.4l-0.2,0.6l0,0.1l-0.4,0.7l-0.4,0.8l-0.6,1.7l-0.5,2.4l0.9-0.3l1-0.2l1.1-0.3l0.3,0.4L142,130.6z"/>
	<path class="st1" d="M146.1,126.3l0.5,0.2l0.5,0.3l1.3,2.1l0.2,1.2v1.1l-0.2,1l-0.3,0.9l-0.4,0.9l-0.3,0.5l-0.2,0.2l-0.4,0.8
		l-1.6,1.3l-0.4,0.3l-0.3,0.4l-1.3,0.7l-0.5,0.1l-0.5-0.2l-0.3-0.4l-0.5-1v-1l0.3-2.8l0.8-2.2l0.2-0.8l0.6-0.8l0.4-0.9l0.3-0.4
		l0.9-1l0.4-0.4L146.1,126.3z M145.6,128.3l-0.2,0.3l-0.2,0.4l-0.4,0.5l-0.3,0.3l-1.2,2.9l-0.3,1l-0.2,1.1l0,0.6l0,0.8l0.2,0.5
		l0.3,0.3l0.4,0l1.1-0.7l0.7-0.6l0.8-0.8l1.1-1.3l0.3-0.9l0.3-0.9l0.1-0.6v-0.6l-0.1-0.6l-0.3-1l-0.2-0.4l-0.5,0.3l-0.7-0.5H145.6z"
		/>
	<path class="st1" d="M158.4,129.3l-0.6,0.1l-0.9,0.3l-0.8,0.4l-0.8,0.5l-1,0.9l-0.6,0.7l-1.1,1.5l-0.9,1.6l-0.6,1.3l-0.1,0.6
		l-0.2,0.5l0.1,0.2l0,0.2l0.1,0.2l-0.3,0.6l-0.3,0.4l-0.4-0.3l-0.7-0.6l0.1-0.5l0.6-1.2l0.1-1l0.2-0.9l0.4-1.6l0.4-1.9l0.3-0.9
		l0-0.3l0.1-0.4l0.3-0.8l0.1-0.4v-0.4l-0.2-0.8l0.3-0.4l0.3-0.3l0.8,0.1l0.4,0.4l0.2,0.4v0.3l0.1,0.3l-0.5,0.6l-0.4,0.7l-0.4,0.8
		l-0.6,1.8l-0.3,1.4l0.3-0.2l1.1-1.4l0.6-0.6l0.3-0.3l0.4-0.2l0.4-0.3l0.5-0.2l0.8-0.6l0.5-0.1l0.3-0.2l0.8-0.1h0.7l0.2,0.4
		L158.4,129.3z"/>
	<path class="st1" d="M167.5,138.3l-0.3-0.1l-0.3-0.3l-0.2-0.5l0-0.5l0.1-0.6l0.2-0.6l0.1-0.8l0.3-0.9l0.1-0.5l0.2-0.4l0.1-0.3v-0.3
		l0.3-1l0.8-1.8l0.1-0.6l-0.7,0.7l-1.5,1.7l-0.4,0.3l-0.2,0.4l-0.5,0.7l-0.6,0.6l-0.3,0.3l-0.2,0.4l-0.7,0.5l-0.3,0.3l-1.1,1.7
		l-0.3,0.3l-0.3,0.1l-0.2-0.2l-0.3-0.4l-0.1-0.3l0.4-0.8l0.6-2l0.3-1.1l0.5-1.8l0.4-1.8l-0.5,0.3l-0.3,0.3l-0.4,0.3l-1.8,2.2l-1,1.7
		l-0.6,0.8l-0.6,1.9l-0.2,0.4l-0.2,0.3l-0.2,0.1l-0.4-0.1l-0.3-0.3l-0.2-0.3l-0.1-0.4l0.3-0.4l0.2-0.5l0.3-1.5l0.2-0.4v-0.6l0.5-1.9
		l0.5-2.1l0.4-1.7l0.4-0.8l0.4-0.1l0.4,0.1l0.2,0.3l0.2,0.8l-0.3,0.3l-0.5,0.7l-0.2,0.4l-0.7,3l-0.2,1.1l0.4-0.5l0.5-0.8l0.4-0.3
		l0.5-0.8l1.2-1.4l0.2-0.4l0.6-0.5l0.3-0.3l0.2-0.4l0.1,0l0.6-0.5l0.4,0.2l0.4,0.1l-0.1,1l-0.2,1l-0.3,0.9l-0.2,0.4l0,0.2l0,0.3
		l-0.3,0.7l-0.6,2.4l0.5-0.5l1-1.2l0.2-0.3l1.4-1.4l0.3-0.1l0-0.1l0.1-0.2l0.5-0.7l0.8-0.8l0.6-0.8l0.1-0.3l0.4-0.2l0.3-0.3l0.3-0.2
		l0.2-0.5l0.3-0.3l0.1-0.4l0.3-0.2l0.4,0.1l0.4,0.2l0.2,0.2l-0.1,0.5l-0.4,0.8l-0.1,0.3l-0.3,0.4l-0.2,0.3l-0.6,1.4l-0.1,0.6
		l-0.2,0.3l-0.1,0.5l-0.4,0.6l-0.2,0.4l-0.2,1l-0.5,1.6l-0.2,0.9l0.1,1.3l0.4,0.2l0,0.3l-0.4,0.3L167.5,138.3z"/>
	<path class="st1" d="M176.7,134.6l0.1-0.6l0.2-0.4l0.3-1.1l0.4-1.1l0.1-0.5l0.1-0.2l0.1-0.6l0.1-0.3l0.2-1.1l0-0.5v-0.5l-0.3-0.5
		l0.3-0.3l0.4-0.2l0.4,0l0.4,0.2l0.2,0.4v0.3l-0.3,0.8l-0.2,0.9l-0.8,2.6l-0.2,1l-0.9,2.6l-0.3,1.4l0.5,0.3l-0.1,0.6l-0.2,0.5
		l-0.3,0.6l-0.8,0.1L176,138v-0.6l0.3-1.5l0-0.5l0.2-0.4L176.7,134.6z M182.7,122.4l-0.4,0.3l-0.4,0.1l-0.3,0.2l0.1,0.8l-0.1,0.4
		l-0.2,0.2l-0.3-0.1l-0.3-0.3l-0.3-0.4l-0.2-0.5l-0.1-0.5l0.1-0.4l0.4-0.2l0.3,0.1l0.9,0.1l0.4,0.1L182.7,122.4z"/>
	<path class="st1" d="M182,138.2l-0.3-0.4l-0.1-0.4l-0.1-0.5V136l0.1-0.9l0.2-0.9l0.5-1.8l0.9-2.7l-0.5-0.2l-0.3-0.3l-0.1-0.4
		l0.2-0.5l0.4-0.2l0.9-0.1l0.8-1.7l0.4-1.2l0.3-0.8l0-0.4l-0.1-0.6l0.3-0.3l0.4-0.1l0.5,0.2l0.3,0.4l0.1,0.5l-0.1,0.3l-0.5,0.7
		l-0.1,0.5l-0.5,0.9l-0.1,0.5l0,0.5l0.2,0l0.5-0.1l1.6-0.4l0.9-0.1h0.8l-0.3,0.5l-0.5,0.1l-0.3,0.3l-2.8,0.7l-0.9,0.3l-0.8,2.1
		l-1.2,4v1.2l0.1,0.4l0.3,0.4l0.9-0.4l0.8-0.5l0.5-0.2l0.6-0.6l0.8-0.6l0.6-0.4l0.4,0.3l-0.6,0.9l-0.4,0.3l-0.4,0.3l-0.9,0.6l-1.6,1
		l-0.9,0.4l-0.4,0.1L182,138.2z"/>
	<path class="st1" d="M189.7,138.6l-0.4-0.3L189,138l-0.3-0.4l-0.4-0.8l-0.2-0.9v-1l0.1-1l0.7-2.7l0.4-0.8l0.9-1.5l0.4-0.8l0.3-0.3
		l0.2-0.4l-0.1-0.2l0.1-0.3l0.3-0.4l0.4-0.3l0.4-0.2l1.4,0.3l0.3,0.1l0.5,0.4l0.4,0.6l0.1,0v0.9l-0.2,0.9l-0.8,1.9l-1.1,1.4
		l-0.6,0.6l-0.4,0.2l-0.2,0.3l-0.3,0.3l-0.4,0.2l-0.5,0.2l-0.9,0.1l-0.4,0l0.2-0.4l0.3-0.3l0.8-0.4l0.5-0.6l0.7-0.6l0.3-0.3l0.2-0.4
		l0.3-0.2l0.6-0.8l0.5-0.9l0.2-1.1l-0.1-0.5l-0.4-0.3l-0.9,0.7l-0.6,0.6l-0.3,0.2l-0.7,0.8l-0.2,0.4l-0.1,0.5l-0.4,0.6l-0.6,1.4
		l-0.4,1.6v1.5l0,0.5l0.2,0.4l0.3,0.3l0.6,0.1h0.9l0.5-0.2l0.5-0.2l0.4-0.3l0.3-0.4l1.4-1.2l0.3-0.3l0.5-0.9l0.4,0v0.6l-0.2,0.9
		l-0.2,0.4l-0.7,0.7l-0.3,0.5l-1.9,1.3l-0.4,0.2l-0.5,0.1l-0.5,0l-0.5-0.1l-0.2,0.1H189.7z"/>
	<path class="st1" d="M207.1,138.3l-0.3-0.1l-0.3-0.3l-0.2-0.5l0-0.5l0.1-0.6l0.2-0.6l0.1-0.8l0.3-0.9l0.1-0.5l0.2-0.4l0.1-0.3v-0.3
		l0.3-1l0.8-1.8l0.1-0.6l-0.7,0.7l-1.5,1.7l-0.4,0.3l-0.2,0.4l-0.5,0.7l-0.6,0.6l-0.3,0.3l-0.2,0.4l-0.7,0.5l-0.3,0.3l-1.1,1.7
		l-0.3,0.3l-0.3,0.1l-0.2-0.2l-0.3-0.4l-0.1-0.3l0.4-0.8l0.6-2l0.3-1.1l0.5-1.8l0.4-1.8l-0.5,0.3l-0.3,0.3l-0.4,0.3l-1.8,2.2l-1,1.7
		l-0.6,0.8l-0.6,1.9l-0.2,0.4l-0.2,0.3l-0.2,0.1l-0.4-0.1l-0.3-0.3l-0.2-0.3l-0.1-0.4l0.3-0.4l0.2-0.5l0.3-1.5l0.2-0.4v-0.6l0.5-1.9
		l0.5-2.1l0.4-1.7l0.4-0.8l0.4-0.1l0.4,0.1l0.2,0.3l0.2,0.8l-0.3,0.3l-0.5,0.7l-0.2,0.4l-0.7,3l-0.2,1.1l0.4-0.5l0.5-0.8l0.4-0.3
		l0.5-0.8l1.2-1.4l0.2-0.4l0.6-0.5l0.3-0.3l0.2-0.4l0.1,0l0.6-0.5l0.4,0.2l0.4,0.1l-0.1,1l-0.2,1l-0.3,0.9l-0.2,0.4l0,0.2l0,0.3
		l-0.3,0.7l-0.6,2.4l0.5-0.5l1-1.2l0.2-0.3l1.4-1.4l0.3-0.1l0-0.1l0.1-0.2l0.5-0.7l0.8-0.8l0.6-0.8l0.1-0.3l0.4-0.2l0.3-0.3l0.3-0.2
		l0.2-0.5l0.3-0.3l0.1-0.4l0.3-0.2l0.4,0.1l0.4,0.2l0.2,0.2l-0.1,0.5l-0.4,0.8l-0.1,0.3l-0.3,0.4l-0.2,0.3l-0.6,1.4l-0.1,0.6
		l-0.2,0.3l-0.1,0.5l-0.4,0.6l-0.2,0.4l-0.2,1l-0.5,1.6l-0.2,0.9l0.1,1.3l0.4,0.2l0,0.3l-0.4,0.3L207.1,138.3z"/>
</g>
<rect class="st3" width="319" height="153"/>
</svg>
