<?xml version="1.0" encoding="utf-8"?>
<!-- Generator: Adobe Illustrator 25.1.0, SVG Export Plug-In . SVG Version: 6.00 Build 0)  -->
<svg version="1.1" id="Layer_1" xmlns="http://www.w3.org/2000/svg" xmlns:xlink="http://www.w3.org/1999/xlink" x="0px" y="0px"
	 viewBox="0 0 1217 263" style="enable-background:new 0 0 1217 263;" xml:space="preserve">
<style type="text/css">
	.st0{fill:none;}
	.st1{fill:#343A40;}
	.st2{fill:none;stroke:#343A40;stroke-miterlimit:10;}
</style>
<rect class="st0" width="1217" height="263"/>
<g>
	<path class="st1" d="M150.3,92.7L150,92l-0.3-0.9l0.3-2.2l0.6-1.7L150,87l-0.2-0.4l0.2-0.4l0.4-0.3l0.6-0.1l0.1-0.5l0.3-0.6
		l0.1-0.6l0.2-0.5l0.1-0.6l0.2-0.6l0.3-0.7h0l-0.3-0.3l0-0.7l0.3-0.6l0.6,0.1l0.2-0.6l0.8,0l0.4,0.6l5.3-0.5l0.9,0l0.2,0.3l0.1,0.3
		l-4.1,0.6l-0.8,0.3l-0.1,0.1l-1,0l-0.5,0l-0.5,0.1l-0.4,0.4l-0.6,1.2l-0.1,0.7l-0.3,0.7l-0.1,0.7l-0.3,0.8l0.9,0l0.6-0.1l0.3-0.2
		l1.1,0l2.2-0.3l0.5,0h0.3l0.3,0.3l-0.6,0.3l-1.6,0.2l-2.6,0.5l-1,0.1l-0.6,0.3l-0.2,0.8l-0.3,0.7l-0.1,0.6l-0.2,1.8l0.2,1l0.7,0.6
		l0.7,0.3l0.6,0l0.9,0.1l0.5-0.2l0.9-0.1l3.2-1.5l-0.1,0.7l-0.7,0.6l-0.8,0.4l-0.7,0.4l-2.7,0.6h-0.8l-0.8-0.1l-0.8-0.3L150.3,92.7z
		"/>
	<path class="st1" d="M159.4,92.7l-0.2-0.3l-0.1-0.5l0-0.3l0.1-0.4l0.4-0.3l0.1-0.6l0.8-2.2l0.1-0.5l0.3-0.9l0.5-1.9l0.3-0.9
		l-0.1-0.2l0-0.2l-0.1-0.2v-0.5l0.1-0.5l0.1-0.3l0.3-0.1l0.6,0.2l0.3,0.4l0.1,0.4l0.1,0.2l-0.2,0.3l-0.3,0.3l-1.4,5l-0.1,0.5
		l0.3-0.3l0.4-0.9l0.7-0.6l2.5-2.7l0.5-0.3l0.7-0.7l0.4-0.3l0.4-0.5l0.5,0.2l0.4,0.3l-0.2,1l-0.4,1.7l-1.3,4.2l-0.2,0.9l-0.1,1l0,1
		l0.1,0l0.4-0.1l0.2,0.1l-0.2,0.4l-0.3,0.4l-0.3,0.2l-0.6-0.1l-0.3-0.3l-0.2-0.8l0.4-1.9l0.7-2.7l1.1-3.5l-0.5,0.3l-0.3,0.3
		l-0.3,0.1l0,0.1l-0.2,0.3l-0.3,0.3l-1.3,1.3l-0.3,0.3l-0.2,0.4l-0.6,0.6l-0.6,0.7l-0.5,0.7l-1.3,2.5l-0.3,0.2l-0.3,0.1L159.4,92.7z
		"/>
	<path class="st1" d="M169.8,93.8l-0.3-0.4l-0.1-0.4l-0.1-0.5v-0.9l0.1-0.9l0.2-0.9l0.5-1.8l0.9-2.7l-0.5-0.2l-0.3-0.3l-0.1-0.4
		l0.2-0.5l0.4-0.2l0.9-0.1l0.8-1.7l0.4-1.2l0.3-0.8l0-0.4l-0.1-0.6l0.3-0.3l0.4-0.1l0.5,0.2l0.3,0.4l0.1,0.5l-0.1,0.3l-0.5,0.7
		l-0.1,0.5l-0.5,0.9l-0.1,0.5l0,0.5l0.2,0l0.5-0.1l1.6-0.4l0.9-0.1h0.8l-0.3,0.5l-0.5,0.1l-0.3,0.3l-2.8,0.7l-0.9,0.3l-0.8,2.1
		l-1.2,4v1.2l0.1,0.4l0.3,0.4l0.9-0.4l0.8-0.5l0.5-0.2l0.6-0.6l0.8-0.6l0.6-0.4l0.4,0.3l-0.6,0.9l-0.4,0.3l-0.4,0.3l-0.9,0.6l-1.6,1
		l-0.9,0.4l-0.4,0.1L169.8,93.8z"/>
	<path class="st1" d="M177.4,94.2l-0.4-0.3l-0.3-0.3l-0.3-0.4l-0.4-0.8l-0.2-0.9v-1l0.1-1l0.7-2.7l0.4-0.8l0.9-1.5l0.4-0.8l0.3-0.3
		l0.2-0.4l-0.1-0.2l0.1-0.3l0.3-0.4l0.4-0.3l0.4-0.2l1.4,0.3l0.3,0.1l0.5,0.4l0.4,0.6l0.1,0v0.9l-0.2,0.9l-0.8,1.9l-1.1,1.4
		l-0.6,0.6l-0.4,0.2l-0.2,0.3l-0.3,0.3l-0.4,0.2l-0.5,0.2l-0.9,0.1l-0.4,0l0.2-0.4l0.3-0.3l0.8-0.4l0.5-0.6l0.7-0.6l0.3-0.3l0.2-0.4
		l0.3-0.2L181,86l0.5-0.9l0.2-1.1l-0.1-0.5l-0.4-0.3l-0.9,0.7l-0.6,0.6l-0.3,0.2l-0.7,0.8l-0.2,0.4l-0.1,0.5l-0.4,0.6l-0.6,1.4
		l-0.4,1.6v1.5l0,0.5l0.2,0.4l0.3,0.3l0.6,0.1h0.9l0.5-0.2l0.5-0.2l0.4-0.3l0.3-0.4l1.4-1.2l0.3-0.3l0.5-0.9l0.4,0V90l-0.2,0.9
		l-0.2,0.4l-0.7,0.7l-0.3,0.5l-1.9,1.3l-0.4,0.2l-0.5,0.1l-0.5,0l-0.5-0.1l-0.2,0.1H177.4z"/>
	<path class="st1" d="M193,84.9l-0.6,0.1l-0.9,0.3l-0.8,0.4l-0.8,0.5l-1,0.9l-0.6,0.7l-1.1,1.5l-0.9,1.6l-0.6,1.3l-0.1,0.6l-0.2,0.5
		l0.1,0.2l0,0.2l0.1,0.2l-0.3,0.6l-0.3,0.4l-0.4-0.3l-0.7-0.6l0.1-0.5l0.6-1.2l0.1-1l0.2-0.9l0.4-1.6l0.4-1.9l0.3-0.9l0-0.3l0.1-0.4
		l0.3-0.8l0.1-0.4v-0.4l-0.2-0.8l0.3-0.4l0.3-0.3l0.8,0.1l0.4,0.4l0.2,0.4v0.3l0.1,0.3l-0.5,0.6l-0.4,0.7l-0.4,0.8l-0.6,1.8
		l-0.3,1.4l0.3-0.2l1.1-1.4l0.6-0.6l0.3-0.3l0.4-0.2l0.4-0.3l0.5-0.2l0.8-0.6l0.5-0.1l0.3-0.2l0.8-0.1h0.7l0.2,0.4L193,84.9z"/>
	<path class="st1" d="M197.2,93.8l-0.3-0.2l-0.5-1.3l-0.1-1.1v-0.5l0.1-0.5l0.6-1.8l0.2-0.9l1.4-2.3l0.6-0.8l0.3-0.4l1.2-1.3
		l1.3-0.7l0.8,0.1l0.4,0.2h0.1l0.2,0.3l0.2,0.5l0.9-0.7l0.4,0.1l0.3,0.2l0.2,0.4l-0.1,0.5l-0.3,0.3l-0.4,0.7l-0.3,0.8l-0.5,1.9
		l-0.1,0.6l-0.3,0.5V90l-0.2,1.8v1l0.1,0.5l0.2,0.1l0.5-0.4l0.3,0.3l-0.4,0.9l-0.3,0.2l-0.3,0.1l-0.4-0.1l-0.3-0.2l-0.3-0.3
		l-0.2-0.4v-1.4l0.5-3.8l-0.6,0.8l-0.5,0.8l-1.1,1.4l-0.2,0.5l-0.3,0.5l-0.3,0.2l-0.8,1.3l-0.9,0.4l-0.6,0.1L197.2,93.8z
		 M197.8,92.8l0.6-0.2l0.3-0.3L199,92l0.3-0.8l0.4-0.3l0.3-0.4l0.4-0.3l0.2-0.5l0.2-0.3l0.6-0.6l1.8-3l0.4-0.8l0.2-0.9l-0.7-0.2
		l-0.4-0.3l-0.4,0.1l-0.5,0.2l-0.4,0.3l-0.6,0.4l-0.4,0.6l-0.7,0.8l-0.5,0.7l-0.4,0.7l-0.4,0.9l-0.5,0.9l-0.2,1l-0.2,0.6l-0.1,0.5
		v0.4l0.1,0.5l0.2,0.4L197.8,92.8z"/>
	<path class="st1" d="M206.2,92.7l-0.2-0.3l-0.1-0.5l0-0.3l0.1-0.4l0.4-0.3l0.1-0.6l0.8-2.2l0.1-0.5l0.3-0.9l0.5-1.9l0.3-0.9
		l-0.1-0.2l0-0.2l-0.1-0.2v-0.5l0.1-0.5l0.1-0.3l0.3-0.1l0.6,0.2l0.3,0.4l0.1,0.4L210,83l-0.2,0.3l-0.3,0.3l-1.4,5L208,89l0.3-0.3
		l0.4-0.9l0.7-0.6l2.5-2.7l0.5-0.3l0.7-0.7l0.4-0.3l0.4-0.5l0.5,0.2l0.4,0.3l-0.2,1l-0.4,1.7l-1.3,4.2l-0.2,0.9l-0.1,1l0,1l0.1,0
		L213,93l0.2,0.1l-0.2,0.4l-0.3,0.4l-0.3,0.2l-0.6-0.1l-0.3-0.3l-0.2-0.8l0.4-1.9l0.7-2.7l1.1-3.5l-0.5,0.3l-0.3,0.3l-0.3,0.1l0,0.1
		l-0.2,0.3l-0.3,0.3l-1.3,1.3l-0.3,0.3l-0.2,0.4l-0.6,0.6l-0.6,0.7l-0.5,0.7l-1.3,2.5l-0.3,0.2l-0.3,0.1L206.2,92.7z"/>
	<path class="st1" d="M231.1,78.8l0.1,0.5v1l-0.1,0.9l-0.2,0.9l-0.1,0.9l-0.2,0.5l0,0.5l-1.1,2.5l-0.9,1.5l-1,1.6l-0.6,0.7l-0.5,0.8
		l-0.3,0.2l-0.6,0.6l-0.6,0.7l-0.4,0.3l-0.8,0.5l-1.2,0.5h-0.6l-0.5-0.1l-0.2-0.6l-0.4-0.4l-0.1-0.4l-0.1-1.1l-0.2-0.7l0.6-3.1
		l0.2-1.9l1-3.6l0.4-0.7l0.3-1l0.7-1.1l0.4-0.8l0.3-0.4l1,0.3V79l-0.1,0.4l-0.4,0.4l-0.6,0.4l-0.7,1.5l-0.6,1.7l-0.5,1.7l-0.5,2.3
		l-0.1,0.9l-0.2,1.9V92l0.2,0.4l0.4,0.3l0.4,0.2l1-0.3l0.9-0.8l0.6-0.8l0.4-0.3l0.4-0.3l0.2-0.4l1.7-2.3l0.5-0.9l1.2-2.7l0.7-2.2
		l0.2-1.4v-0.9l-0.4,0.1l-0.5,0.1l0-0.6l0.3-0.4l0.4-0.2l0.4,0.1L231.1,78.8z"/>
	<path class="st1" d="M230.5,93.5l-0.1-0.3l0.1-0.3l0.1-0.5l0.1-0.6l0.3-0.4l0.3-0.7l1.1-3.4l0.1-0.4l-0.1-0.4l0.4-0.6l0.3-0.8v-0.5
		l0.4-0.9l1-3.3l0.1-0.5L234,80l-0.5,0.1l-0.4,0.2l-0.6,0.4l-0.3,0l-0.2-0.4l0-0.4l1.8-0.7l1-0.3l2.3-0.3l0.2-0.1h1.3l0.5,0.2
		l1.4,0.6l0.2,0.4l0.1,0.4l0,1l0,0.5l-0.3,0.9l-0.5,0.8l-0.2,0.3l-0.3,0.3l-0.3,0.2l-0.3,0.4l-0.4,0.3l-0.2,0.3l-0.3,0.2l-0.5,0.4
		l-0.3,0.4l-0.5,0.2l-0.3,0.2l-0.4,0.2l-0.3,0.3l-0.6,0.1l-0.3,0.2l-0.5,0.1l0.1,0.5l0.4,0.8l0.9,1.6l1.6,2.3l0.5,0.3l0.3,0.3l0.3,0
		l0.3,0.2l0.1,0.3l-0.1,0.5l-0.4,0.2l-0.3-0.1l-0.6-0.7l-0.5-0.1l-1-1.5l-0.4-0.7l-1.2-1.6l-0.5-0.8l-0.3-0.8l-0.5,0.9l-0.3,0.9
		l-0.7,2.4l-0.1,0.4l0,0.4l-0.1,0.3l-0.3,0.3l-0.4,0.1L230.5,93.5z M234.6,86.1l0.9-0.3l0.8-0.4l0.2-0.3l0.5-0.3l0.4-0.1l0.2-0.3
		l0.9-0.7l1.2-1.6l0.2-0.4l0.2-0.5l0-0.4l-0.1-0.4l-0.3-0.3l-0.4-0.3l-0.4-0.2l-1-0.2h-1.5l-0.5,0.2l-0.6,0.1l0.2,0.9l-0.1,0.3
		l-0.7,1.6l-0.1,0.5l-0.3,0.4l-0.1,1.1l0,0.2l-0.5,0.9l0,0.3l0.1,0.4L234.6,86.1z"/>
	<path class="st1" d="M239.9,93.5l-0.3-0.3l-0.2-0.4l0.1-0.4l0.4-0.7l0.6-1.8l0.7-1.8l1.2-3.7l0-0.6l0.2-0.3l0.2-0.5l0.4-1.7
		l0.6-1.3l0.1-0.9l0.2-0.4l0.3-0.3l0.5,0.2l0.4,0.3l-0.3,0.9l-0.7,1.6l-0.6,1.6l-0.1,1l-0.2,0.5l-0.4,0.8l-0.3,0.8l0,0.6l-0.1,0.5
		l-0.3,0.4l-0.3,0.9l-0.3,1.4l-0.3,0.4l-0.4,1.6l0.2,0l0.4,0l1.2-0.4h0.8l2.8-0.4h1.5l0.4-0.1l0.4,0.1l-0.2,0.4l-0.3,0.2l-0.4,0.1
		h-1.4l-0.6,0.3l-0.4-0.1l-0.4,0.1l-0.4,0.2l-0.4,0.1l-0.3,0l-0.4,0.2l-0.9,0.2L242,93l-1.2,0.6l-0.4,0.1L239.9,93.5z"/>
	<path class="st1" d="M262.8,91.9v0.2l-0.1,0.5l-0.2,0.4l-0.3,0.3l-0.6,0.6l-0.4,0.3l-0.4,0.1l-0.4-0.2l-0.6-0.4v-2l0.4-2l0.1-0.4
		l0.2-0.5l0.9-3.4l0.2-0.8l-0.5,0.2l-0.3,0.3l-0.7,0.6l-0.6,0.7l-0.5,0.8l-0.4,0.2l-2.2,2.9l-1,1.6l-0.4,0.9l-0.1,0.6l-0.2,0.5
		l-0.3,0.3l-0.4,0.1l-0.3-0.2l-0.3-0.9l0.2-0.3l0.2-0.4l0.1-0.6l0.5-1.1l0.4-1.9l0.8-2.6l0.3-1.9l0.5-1.4l0.2-0.9l0.3-0.7l0.2-0.9
		l0.3-0.9l0.7-1.7l0.2-0.4l0-0.1l0-0.4l0.3,0l0.4,0.1l0.3,0.2l0.1,0.3l-0.1,0.4l-0.4,0.4l-0.7,1.8l-0.7,1.7l-0.3,0.9l-0.2,0.9
		l-0.3,0.9l-0.5,1.5l-0.2,1.6l-0.1,0.4l-0.2,1l-0.1,0.5l0.3-0.2l1.2-1.4l0.3-0.3l0.4-0.2l0.1-0.3l0.3-0.5l0.4-0.5l0.4-0.4l0.4-0.2
		l0.4-0.3l0-0.1l0.2-0.3l0.2,0l0.3-0.1l0.7-0.8l0.4-0.4l0.4-0.3l0.3-0.4l0.3-0.1l0.4,0.1l0.3,0.2l0.1,0.4l-0.1,0.3l-0.4,0.7
		l-0.4,1.7l-1.1,3.8l-0.4,1.8l0,0.8l0,0.4l0.1,0.4l0.5-0.1l0.4-0.4l0.4-0.1l0.4-0.3L262.8,91.9z"/>
	<path class="st1" d="M265.6,94.2l-0.4-0.3l-0.3-0.3l-0.3-0.4l-0.4-0.8l-0.2-0.9v-1l0.1-1l0.7-2.7l0.4-0.8l0.9-1.5l0.4-0.8l0.3-0.3
		l0.2-0.4l-0.1-0.2l0.1-0.3l0.3-0.4l0.4-0.3l0.4-0.2l1.4,0.3l0.3,0.1l0.5,0.4l0.4,0.6l0.1,0v0.9l-0.2,0.9l-0.8,1.9l-1.1,1.4
		l-0.6,0.6l-0.4,0.2l-0.2,0.3l-0.3,0.3l-0.4,0.2l-0.5,0.2l-0.9,0.1l-0.4,0l0.2-0.4l0.3-0.3l0.8-0.4l0.5-0.6l0.7-0.6l0.3-0.3l0.2-0.4
		l0.3-0.2l0.6-0.8l0.5-0.9l0.2-1.1l-0.1-0.5l-0.4-0.3l-0.9,0.7l-0.6,0.6l-0.3,0.2l-0.7,0.8l-0.2,0.4l-0.1,0.5L266,87l-0.6,1.4
		l-0.4,1.6v1.5l0,0.5l0.2,0.4l0.3,0.3l0.6,0.1h0.9l0.5-0.2l0.5-0.2l0.4-0.3l0.3-0.4l1.4-1.2l0.3-0.3l0.5-0.9l0.4,0V90l-0.2,0.9
		l-0.2,0.4L270,92l-0.3,0.5l-1.9,1.3l-0.4,0.2l-0.5,0.1l-0.5,0l-0.5-0.1l-0.2,0.1H265.6z"/>
	<path class="st1" d="M281.2,84.9l-0.6,0.1l-0.9,0.3l-0.8,0.4l-0.8,0.5l-1,0.9l-0.6,0.7l-1.1,1.5l-0.9,1.6l-0.6,1.3l-0.1,0.6
		l-0.2,0.5l0.1,0.2l0,0.2l0.1,0.2l-0.3,0.6l-0.3,0.4l-0.4-0.3l-0.7-0.6l0.1-0.5l0.6-1.2l0.1-1l0.2-0.9l0.4-1.6l0.4-1.9l0.3-0.9
		l0-0.3l0.1-0.4l0.3-0.8l0.1-0.4v-0.4l-0.2-0.8l0.3-0.4l0.3-0.3l0.8,0.1l0.4,0.4l0.2,0.4v0.3l0.1,0.3l-0.5,0.6l-0.4,0.7l-0.4,0.8
		l-0.6,1.8l-0.3,1.4l0.3-0.2l1.1-1.4l0.6-0.6l0.3-0.3l0.4-0.2l0.4-0.3l0.5-0.2l0.8-0.6l0.5-0.1l0.3-0.2l0.8-0.1h0.7l0.2,0.4
		L281.2,84.9z"/>
	<path class="st1" d="M281.4,94.2l-0.4-0.3l-0.3-0.3l-0.3-0.4l-0.4-0.8l-0.2-0.9v-1l0.1-1l0.7-2.7l0.4-0.8l0.9-1.5l0.4-0.8l0.3-0.3
		l0.2-0.4l-0.1-0.2l0.1-0.3l0.3-0.4l0.4-0.3l0.4-0.2l1.4,0.3l0.3,0.1l0.5,0.4l0.4,0.6l0.1,0v0.9l-0.2,0.9l-0.8,1.9l-1.1,1.4
		l-0.6,0.6l-0.4,0.2l-0.2,0.3l-0.3,0.3l-0.4,0.2l-0.5,0.2l-0.9,0.1l-0.4,0l0.2-0.4l0.3-0.3l0.8-0.4l0.5-0.6l0.7-0.6l0.3-0.3l0.2-0.4
		l0.3-0.2L285,86l0.5-0.9l0.2-1.1l-0.1-0.5l-0.4-0.3l-0.9,0.7l-0.6,0.6l-0.3,0.2l-0.7,0.8l-0.2,0.4l-0.1,0.5l-0.4,0.6l-0.6,1.4
		l-0.4,1.6v1.5l0,0.5l0.2,0.4l0.3,0.3l0.6,0.1h0.9l0.5-0.2l0.5-0.2l0.4-0.3l0.3-0.4l1.4-1.2l0.3-0.3l0.5-0.9l0.4,0V90l-0.2,0.9
		l-0.2,0.4l-0.7,0.7l-0.3,0.5l-1.9,1.3l-0.4,0.2l-0.5,0.1l-0.5,0l-0.5-0.1l-0.2,0.1H281.4z"/>
	<path class="st1" d="M291.7,92.8l-0.3,0.4l-0.9,0.5l-0.3,0.4l-0.4-0.1l-0.3-0.3l-0.2-0.4l-0.2-0.4l0.3-0.4l0.4-0.2h0.5l0.5,0.2
		l0.4,0.2L291.7,92.8z"/>
	<path class="st1" d="M299,92.8l-0.3,0.4l-0.9,0.5l-0.3,0.4l-0.4-0.1l-0.3-0.3l-0.2-0.4l-0.2-0.4l0.3-0.4l0.4-0.2h0.5l0.5,0.2
		l0.4,0.2L299,92.8z"/>
	<path class="st1" d="M306.2,92.8l-0.3,0.4l-0.9,0.5l-0.3,0.4l-0.4-0.1l-0.3-0.3l-0.2-0.4l-0.2-0.4l0.3-0.4l0.4-0.2h0.5l0.5,0.2
		l0.4,0.2L306.2,92.8z"/>
</g>
<path class="st2" d="M135.3,86.1c-30.3,9-68.1,31.7-59.5-9.3"/>
<path class="st1" d="M75.8,76.8l-7.5,4l-0.2-0.3L73.4,69L77,56.7l2,12.6l4,12.1l-0.1,0.2L75.8,76.8z"/>
</svg>
