<svg xmlns="http://www.w3.org/2000/svg" width="227.109" height="55.261" viewBox="0 0 227.109 55.261">
  <g id="Group_604" data-name="Group 604" transform="translate(-850 -182)">
    <g id="Group_1" data-name="Group 1" transform="translate(850 182)">
      <rect id="Rectangle_2" data-name="Rectangle 2" width="55.261" height="55.261" rx="4.36" transform="translate(0)" fill="#3b5a9e"/>
      <path id="Path_19" data-name="Path 19" d="M192.568,176.491a14.732,14.732,0,0,0-27.283-.066l0,0-13.56,31.535a5.425,5.425,0,0,0,3.44,3.04l10.088-23.463a14.727,14.727,0,0,0,27.327.014L202.658,211a5.432,5.432,0,0,0,3.44-3.039Zm-3.272,5.54a10.4,10.4,0,1,1-.762-3.887h0l.016.036A10.335,10.335,0,0,1,189.3,182.032Z" transform="translate(-151.279 -155.988)" fill="#fff"/>
    </g>
    <g id="Group_2" data-name="Group 2" transform="translate(929.909 191.967)">
      <path id="Path_20" data-name="Path 20" d="M145.109,217.722h1.259l5.485,30.578h-1.077l-1.351-7.553h-7.374L140.7,248.3h-1.079Zm4.136,22.033-2.83-15.741c-.317-1.8-.632-4.856-.632-4.856h-.09s-.312,3.06-.629,4.856l-2.833,15.741Z" transform="translate(-139.624 -217.362)" fill="#ffffff"/>
      <path id="Path_21" data-name="Path 21" d="M148.9,220.719h.722l.36,2.7h.09a4.277,4.277,0,0,1,4.5-3.057,4.2,4.2,0,0,1,4.229,2.653c.719,1.8.9,5.442.9,9.849,0,4.588-.133,8-.9,9.894a4.844,4.844,0,0,1-8.725-.27h-.09v11.962H148.9Zm5.487,23.656a3.316,3.316,0,0,0,3.417-2.023c.674-1.619.812-5.038.812-9.489,0-4.316-.18-7.96-.812-9.489a3.225,3.225,0,0,0-3.237-2.023,3.577,3.577,0,0,0-3.462,1.98c-.812,1.436-1.124,3.5-1.124,9.532,0,5.755.133,7.646,1.077,9.534A3.593,3.593,0,0,0,154.39,244.375Z" transform="translate(-128.044 -214.068)" fill="#ffffff"/>
      <path id="Path_22" data-name="Path 22" d="M157.9,220.719h.722l.36,2.7h.09a4.277,4.277,0,0,1,4.5-3.057,4.2,4.2,0,0,1,4.229,2.653c.719,1.8.9,5.442.9,9.849,0,4.588-.133,8-.9,9.894a4.844,4.844,0,0,1-8.725-.27h-.09v11.962H157.9Zm5.487,23.656a3.316,3.316,0,0,0,3.417-2.023c.674-1.619.812-5.038.812-9.489,0-4.316-.18-7.96-.812-9.489a3.225,3.225,0,0,0-3.237-2.023,3.577,3.577,0,0,0-3.462,1.98c-.812,1.436-1.124,3.5-1.124,9.532,0,5.755.133,7.646,1.077,9.534A3.594,3.594,0,0,0,163.39,244.375Z" transform="translate(-116.811 -214.068)" fill="#ffffff"/>
      <path id="Path_23" data-name="Path 23" d="M166.7,233.208c0-5.575,0-10.656.719-12.726a4.819,4.819,0,0,1,4.678-2.92,4.871,4.871,0,0,1,4.678,2.83c.672,1.666.719,6.387.719,9.939h-1.081c0-3.5,0-8.183-.629-9.622a4.185,4.185,0,0,0-7.374.09c-.629,1.664-.629,6.924-.629,12.409,0,5.667,0,10.525.629,12.369a3.793,3.793,0,0,0,3.687,2.293,3.868,3.868,0,0,0,3.687-2.205c.629-1.484.629-4.629.629-8.587H177.5c0,4.049,0,7.194-.719,8.9a5.206,5.206,0,0,1-9.356-.09C166.7,243.733,166.7,238.741,166.7,233.208Z" transform="translate(-105.829 -217.562)" fill="#ffffff"/>
      <path id="Path_24" data-name="Path 24" d="M175.5,232.863c0-4.406.09-8.1.809-9.894a5.338,5.338,0,0,1,9.174,0c.722,1.8.812,5.487.812,9.894,0,4.588-.047,8.05-.812,9.938-.672,1.664-2.428,2.563-4.586,2.563s-3.914-.9-4.588-2.563C175.548,240.913,175.5,237.452,175.5,232.863Zm5.4,11.512a3.667,3.667,0,0,0,3.6-1.978c.677-1.621.719-5.083.719-9.534,0-4.316-.09-8.005-.719-9.532a4.256,4.256,0,0,0-7.194,0c-.632,1.526-.722,5.215-.722,9.532,0,4.451.045,7.913.722,9.534A3.667,3.667,0,0,0,180.9,244.375Z" transform="translate(-94.846 -214.068)" fill="#ffffff"/>
      <path id="Path_25" data-name="Path 25" d="M184.5,220.521h1.079V240c0,2.518,1.034,4.181,3.6,4.181,3.235,0,5.036-3.1,5.036-6.971V220.521H195.3v24.285h-.719l-.36-3.147h-.09a4.98,4.98,0,0,1-4.946,3.507c-3.284,0-4.678-2.023-4.678-5.17Z" transform="translate(-83.614 -213.869)" fill="#ffffff"/>
      <path id="Path_26" data-name="Path 26" d="M193.7,220.719h.719l.362,2.7h.09a4.569,4.569,0,0,1,4.316-3.057c3.192,0,3.957,2.023,3.957,4.631v8.77h-1.079v-8.77c0-2.2-.674-3.642-2.877-3.642-2.61,0-4.406,2.383-4.406,5.892V245H193.7Z" transform="translate(-72.133 -214.068)" fill="#ffffff"/>
      <path id="Path_27" data-name="Path 27" d="M203.551,240.013v-16.5H201.3v-.991h2.248l.36-3.595h.719v3.595h5.218v.991H204.63v16.5c0,2.7.225,4.136.719,4.9a2.811,2.811,0,0,0,2.61,1.259,5.591,5.591,0,0,0,1.8-.27l.092.045v.854a3.863,3.863,0,0,1-1.888.36,3.706,3.706,0,0,1-3.509-1.753C203.821,244.419,203.551,242.89,203.551,240.013Z" transform="translate(-62.647 -215.865)" fill="#ffffff"/>
    </g>
  </g>
</svg>
